Automatic Package Testing • autotest
…
Usage

The simply way to use the package is

x <- autotest_package ("<package>")

The argument to autotest_package() can either be the name of an installed package, or a path to a local directory containing the source for a package. The result is a data.frame of errors, warnings, and other diagnostic messages issued during package auotest-ing.

What is tested?

The package includes a function which lists all test currently implemented.

autotest_types ()
#> # A tibble: 23 x 8
#>    type  test_name  fn_name parameter parameter_type operation   content   test 
#>    <chr> <chr>      <chr>   <chr>     <chr>          <chr>       <chr>     <lgl>
#>  1 dummy rect_as_o… <NA>    <NA>      rectangular    Convert on… "check f… TRUE 
#>  2 dummy rect_comp… <NA>    <NA>      rectangular    Convert on… "expect … TRUE 
#>  3 dummy rect_comp… <NA>    <NA>      rectangular    Convert on… "expect … TRUE 
#>  4 dummy rect_comp… <NA>    <NA>      rectangular    Convert on… "expect … TRUE 
#>  5 dummy extend_re… <NA>    <NA>      rectangular    Extend exi… "(Should… TRUE 
#>  6 dummy replace_r… <NA>    <NA>      rectangular    Replace cl… "(Should… TRUE 
#>  7 dummy vector_to… <NA>    <NA>      vector         Convert ve… "(Should… TRUE 
#>  8 dummy vector_cu… <NA>    <NA>      vector         Custom cla… "(Should… TRUE 
#>  9 dummy trivial_n… <NA>    <NA>      numeric        Add trivia… "(Should… TRUE 
#> 10 dummy int_as_nu… <NA>    <NA>      single integer Integer va… "(Should… TRUE 
#> # … with 13 more rows
…
print (x)
#> # A tibble: 96 x 9
#>    type  test_name fn_name parameter parameter_type operation content test 
#>    <chr> <chr>     <chr>   <chr>     <chr>          <chr>     <chr>   <lgl>
#>  1 dummy vector_t… var     x         vector         Convert … (Shoul… TRUE 
#>  2 dummy negate_l… var     na.rm     single logical Negate d… (Funct… TRUE 
#>  3 dummy subst_in… <NA>    <NA>      single logical Substitu… (Funct… TRUE 
#>  4 dummy subst_ch… <NA>    <NA>      single logical Substitu… should… TRUE 
#>  5 dummy single_p… var     na.rm     single logical Length 2… Should… TRUE 
#>  6 dummy return_s… var     (return … <NA>           Check th… <NA>    TRUE 
#>  7 dummy return_v… var     (return … <NA>           Check th… <NA>    TRUE 
#>  8 dummy return_d… var     (return … <NA>           Check wh… <NA>    TRUE 
#>  9 dummy return_c… var     (return … <NA>           Compare … <NA>    TRUE 
#> 10 dummy vector_t… var     y         vector         Convert … (Shoul… TRUE 
#> # … with 86 more rows, and 1 more variable: yaml_hash <chr>
…
