…
## What is tested?

The package includes a function which lists all tests currently
implemented.

``` r
autotest_types ()
#> # A tibble: 27 × 8
#>    type  test_name      fn_name parameter parameter_type operation content test 
#>    <chr> <chr>          <chr>   <chr>     <chr>          <chr>     <chr>   <lgl>
#>  1 dummy rect_as_other  <NA>    <NA>      rectangular    Convert … "check… TRUE 
#>  2 dummy rect_compare_… <NA>    <NA>      rectangular    Convert … "expec… TRUE 
#>  3 dummy rect_compare_… <NA>    <NA>      rectangular    Convert … "expec… TRUE 
#>  4 dummy rect_compare_… <NA>    <NA>      rectangular    Convert … "expec… TRUE 
#>  5 dummy extend_rect_c… <NA>    <NA>      rectangular    Extend e… "(Shou… TRUE 
#>  6 dummy replace_rect_… <NA>    <NA>      rectangular    Replace … "(Shou… TRUE 
#>  7 dummy vector_to_lis… <NA>    <NA>      vector         Convert … "(Shou… TRUE 
#>  8 dummy vector_custom… <NA>    <NA>      vector         Custom c… "(Shou… TRUE 
#>  9 dummy double_is_int  <NA>    <NA>      numeric        Check wh… "int p… TRUE 
#> 10 dummy trivial_noise  <NA>    <NA>      numeric        Add triv… "(Shou… TRUE 
#> # ℹ 17 more rows
```
…
``` r
x <- autotest_package (package = "stats", functions = "var", test = FALSE)
#> 
#> ── autotesting stats ──
#> 
#> ✔ [1 / 6]: var
#> ✔ [2 / 6]: cor
#> ✔ [3 / 6]: cor
#> ✔ [4 / 6]: cov
#> ✔ [5 / 6]: cov
#> ✔ [6 / 6]: cor
print (x)
#> # A tibble: 170 × 9
#>    type    test_name    fn_name parameter parameter_type operation content test 
#>    <chr>   <chr>        <chr>   <chr>     <chr>          <chr>     <chr>   <lgl>
#>  1 warning par_is_demo… var     use       <NA>           Check th… Exampl… TRUE 
#>  2 warning par_is_demo… cov     y         <NA>           Check th… Exampl… TRUE 
#>  3 dummy   trivial_noi… var     x         numeric        Add triv… (Shoul… TRUE 
#>  4 dummy   vector_cust… var     x         vector         Custom c… (Shoul… TRUE 
#>  5 dummy   vector_to_l… var     x         vector         Convert … (Shoul… TRUE 
#>  6 dummy   negate_logi… var     na.rm     single logical Negate d… (Funct… TRUE 
#>  7 dummy   subst_int_f… var     na.rm     single logical Substitu… (Funct… TRUE 
#>  8 dummy   subst_char_… var     na.rm     single logical Substitu… should… TRUE 
#>  9 dummy   single_par_… var     na.rm     single logical Length 2… Should… TRUE 
#> 10 dummy   return_succ… var     (return … (return objec… Check th… <NA>    TRUE 
#> # ℹ 160 more rows
#> # ℹ 1 more variable: yaml_hash <chr>
```
…
``` r
y <- autotest_package (package = "stats", functions = "var", test = TRUE)
#> ── autotesting stats ──
#> 
#> ✔ [1 / 6]: var
#> ✔ [2 / 6]: cor
#> ✔ [3 / 6]: cor
#> ✔ [4 / 6]: cov
#> ✔ [5 / 6]: cov
#> ✔ [6 / 6]: cor
print (y)
#> # A tibble: 25 × 9
#>    type       test_name fn_name parameter parameter_type operation content test 
#>    <chr>      <chr>     <chr>   <chr>     <chr>          <chr>     <chr>   <lgl>
#>  1 warning    par_is_d… var     use       <NA>           Check th… "Examp… TRUE 
#>  2 warning    par_is_d… cov     y         <NA>           Check th… "Examp… TRUE 
#>  3 diagnostic vector_t… var     x         vector         Convert … "Funct… TRUE 
#>  4 diagnostic subst_in… var     na.rm     single logical Substitu… "(Func… TRUE 
#>  5 diagnostic vector_t… var     x         vector         Convert … "Funct… TRUE 
#>  6 diagnostic vector_t… var     y         vector         Convert … "Funct… TRUE 
#>  7 diagnostic single_c… cor     use       single charac… upper-ca… "is ca… TRUE 
#>  8 diagnostic single_c… cor     method    single charac… upper-ca… "is ca… TRUE 
#>  9 diagnostic vector_c… cor     x         vector         Custom c… "Funct… TRUE 
#> 10 diagnostic vector_c… cor     x         vector         Custom c… "Funct… TRUE 
#> # ℹ 15 more rows
#> # ℹ 1 more variable: yaml_hash <chr>
```
…
types <- autotest_types (notest = "vector_to_list_col")
y <- autotest_package (
    package = "stats", functions = "var",
    test = TRUE, test_data = types
)
#> ── autotesting stats ──
#> 
#> ✔ [1 / 6]: var
#> ✔ [2 / 6]: cor
#> ✔ [3 / 6]: cor
#> ✔ [4 / 6]: cov
#> ✔ [5 / 6]: cov
#> ✔ [6 / 6]: cor
print (y)
#> # A tibble: 22 × 9
#>    type       test_name fn_name parameter parameter_type operation content test 
#>    <chr>      <chr>     <chr>   <chr>     <chr>          <chr>     <chr>   <lgl>
#>  1 warning    par_is_d… var     use       <NA>           Check th… Exampl… TRUE 
#>  2 warning    par_is_d… cov     y         <NA>           Check th… Exampl… TRUE 
#>  3 diagnostic subst_in… var     na.rm     single logical Substitu… (Funct… TRUE 
#>  4 diagnostic single_c… cor     use       single charac… upper-ca… is cas… TRUE 
#>  5 diagnostic single_c… cor     method    single charac… upper-ca… is cas… TRUE 
#>  6 diagnostic vector_c… cor     x         vector         Custom c… Functi… TRUE 
#>  7 diagnostic vector_c… cor     x         vector         Custom c… Functi… TRUE 
#>  8 diagnostic single_c… cor     method    single charac… upper-ca… is cas… TRUE 
#>  9 diagnostic single_c… cor     use       single charac… upper-ca… is cas… TRUE 
#> 10 diagnostic single_c… cor     use       single charac… upper-ca… is cas… TRUE 
#> # ℹ 12 more rows
#> # ℹ 1 more variable: yaml_hash <chr>
```
…
