Control of tests • autotest
…
#> 
#> ── autotesting stats ──
#> 
#> ✔ [1 / 4]: var
#> ✔ [2 / 4]: cor
#> ✔ [3 / 4]: cov
#> ✔ [4 / 4]: cov

That reveals that the example code from the .Rd file has four main points at which the aliases defined in that file are tested: once each for var and cor, and twice for cov. The result looks like this:

print (xf)

#> # A tibble: 150 x 9
#>    type  test_name  fn_name parameter  parameter_type operation  content   test 
#>    <chr> <chr>      <chr>   <chr>      <chr>          <chr>      <chr>     <lgl>
#>  1 dummy int_as_nu… var     x          integer vector Integer v… (Should … TRUE 
#>  2 dummy vector_cu… var     x          vector         Custom cl… (Should … TRUE 
#>  3 dummy vector_to… var     x          vector         Convert v… (Should … TRUE 
#>  4 dummy negate_lo… var     na.rm      single logical Negate de… (Functio… TRUE 
#>  5 dummy subst_int… var     na.rm      single logical Substitut… (Functio… TRUE 
#>  6 dummy subst_cha… var     na.rm      single logical Substitut… should t… TRUE 
#>  7 dummy single_pa… var     na.rm      single logical Length 2 … Should t… TRUE 
#>  8 dummy return_su… var     (return o… (return objec… Check tha… <NA>      TRUE 
#>  9 dummy return_va… var     (return o… (return objec… Check tha… <NA>      TRUE 
#> 10 dummy return_de… var     (return o… (return objec… Check whe… <NA>      TRUE 
#> # … with 140 more rows, and 1 more variable: yaml_hash <chr>
…
